^C:\USERS\STUDENT\DOCUMENTS\ALEKSANDER ROKITA\PROGRAM1\KARTYYYY\TETRIS\PASJANS\PASJANS\DEBUG\GRA.OBJ|C:\USERS\STUDENT\DOCUMENTS\ALEKSANDER ROKITA\PROGRAM1\KARTYYYY\TETRIS\PASJANS\PASJANS\DEBUG\KARTA.OBJ|C:\USERS\STUDENT\DOCUMENTS\ALEKSANDER ROKITA\PROGRAM1\KARTYYYY\TETRIS\PASJANS\PASJANS\DEBUG\SOURCE.OBJ|C:\USERS\STUDENT\DOCUMENTS\ALEKSANDER ROKITA\PROGRAM1\KARTYYYY\TETRIS\PASJANS\PASJANS\DEBUG\STOS.OBJ|C:\USERS\STUDENT\DOCUMENTS\ALEKSANDER ROKITA\PROGRAM1\KARTYYYY\TETRIS\PASJANS\PASJANS\DEBUG\TALIA.OBJ|C:\USERS\STUDENT\DOCUMENTS\ALEKSANDER ROKITA\PROGRAM1\KARTYYYY\TETRIS\PASJANS\PASJANS\DEBUG\USTAWIENIA.OBJ
C:\USERS\STUDENT\DOCUMENTS\ALEKSANDER ROKITA\PROGRAM1\KARTYYYY\TETRIS\PASJANS\DEBUG\PASJANS.ILK
C:\USERS\STUDENT\DOCUMENTS\ALEKSANDER ROKITA\PROGRAM1\KARTYYYY\TETRIS\PASJANS\DEBUG\PASJANS.EXE
C:\USERS\STUDENT\DOCUMENTS\ALEKSANDER ROKITA\PROGRAM1\KARTYYYY\TETRIS\PASJANS\DEBUG\PASJANS.PDB
